[
  {
    "id": 1,
    "title": "Black Puff Sleeve Knit Top",
    "desc": "Easy-going yet fashion-forward, elevate your everyday style with this black knit top. Tailored in comfortable jersey, it features a square neck and puff sleeves.",
    "price": 35,
    "image": "https://img.faballey.com/images/Product/TOP05136Z/d4.jpg",
    "ratings": 4
  },
  {
    "id": 2,
    "title": "White Poplin Back Tie Crop Top",
    "desc": "Elevate your off-duty looks with this ultra cute white poplin crop top. Tailored with elasticated tiered sleeves and a back tie-up, this top is just the pick you need to give your looks a joyful feminine spin . Style Tip: Pair the top with denim shorts for a casual look or with a front slit midi skirt for a romantic evening out.",
    "price": 28,
    "image": "https://img.faballey.com/images/Product/TOP04882Z/d4.jpg",
    "ratings": 5
  },
  {
    "id": 3,
    "title": "Mustard Solid Puff Sleeve Wrap Top",
    "desc": "Steal the spotlight in your off-duty looks with this bright yellow wrap top. It features a tie-up belt and dramatic puffed sleeves.",
    "price": 35,
    "image": "https://img.faballey.com/images/Product/TOP04894Z/d5.jpg",
    "ratings": 3
  },
  {
    "id": 4,
    "title": "Wine Belted Puff Sleeve A Line Dress",
    "desc": "Move from AM to PM in style with this chic and elegant wine dress. Tailored with a square neck, it features puffed sleeves and a buckled self-fabric belt.",
    "price": 40,
    "image": "https://img.faballey.com/images/Product/DRS04161Z/d4.jpg",
    "ratings": 4
  },
  {
    "id": 5,
    "title": "Pink Floral Puff Sleeves Tiered Skater Dress",
    "desc": "With abundant blooms and feminine flair, this pink floral skater dress is a head-turning summer must-have. Tailored in a tiered design, it features puff sleeves and a square neck.",
    "price": 44,
    "image": "https://img.faballey.com/images/Product/DRS04113Z/d3.jpg",
    "ratings": 5
  },
  {
    "id": 6,
    "title": "Powder Blue Scoop Neck Knit Top",
    "desc": "Give your summer look a romantic spin with this pretty powder blue scoop neck top. Tailored with puff sleeves, this top is a wear-everywhere pick.",
    "price": 35,
    "image": "https://img.faballey.com/images/Product/TOP05150Z/d5.jpg",
    "ratings": 3
  }
]
